<?xml version="1.0" encoding="UTF-8" standalone="no"?>
<svg width="16px" height="14px" viewBox="0 0 16 14" version="1.1" xmlns="http://www.w3.org/2000/svg" xmlns:xlink="http://www.w3.org/1999/xlink">
    <!-- Generator: Sketch 3.8.3 (29802) - http://www.bohemiancoding.com/sketch -->
    <title>car</title>
    <desc>Created with Sketch.</desc>
    <defs></defs>
    <g id="Final" stroke="none" stroke-width="1" fill="none" fill-rule="evenodd">
        <g id="Main" transform="translate(-619.000000, -203.000000)" fill="#FFFFFF">
            <g id="Pins" transform="translate(532.000000, 93.000000)">
                <g id="ABC-123" transform="translate(18.000000, 0.000000)">
                    <g id="Group-4" transform="translate(69.000000, 110.000000)">
                        <path d="M14.1511111,0.88375 C13.9688889,0.3675 13.4711111,0 12.8888889,0 L3.11111111,0 C2.52888889,0 2.03111111,0.3675 1.84888889,0.88375 L0,6.125 L0,13.125 C0,13.60625 0.4,14 0.888888889,14 L1.77777778,14 C2.27111111,14 2.66666667,13.60625 2.66666667,13.125 L2.66666667,12.25 L13.3333333,12.25 L13.3333333,13.125 C13.3333333,13.60625 13.7333333,14 14.2222222,14 L15.1111111,14 C15.6044444,14 16,13.60625 16,13.125 L16,6.125 L14.1511111,0.88375 L14.1511111,0.88375 Z M3.11111111,9.625 C2.37333333,9.625 1.77777778,9.03875 1.77777778,8.3125 C1.77777778,7.58625 2.37333333,7 3.11111111,7 C3.84888889,7 4.44444444,7.58625 4.44444444,8.3125 C4.44444444,9.03875 3.84888889,9.625 3.11111111,9.625 L3.11111111,9.625 Z M12.8888889,9.625 C12.1511111,9.625 11.5555556,9.03875 11.5555556,8.3125 C11.5555556,7.58625 12.1511111,7 12.8888889,7 C13.6266667,7 14.2222222,7.58625 14.2222222,8.3125 C14.2222222,9.03875 13.6266667,9.625 12.8888889,9.625 L12.8888889,9.625 Z M1.77777778,5.25 L3.11111111,1.3125 L12.8888889,1.3125 L14.2222222,5.25 L1.77777778,5.25 L1.77777778,5.25 Z" id="car"></path>
                    </g>
                </g>
            </g>
        </g>
    </g>
</svg>