<?xml version="1.0" encoding="UTF-8" standalone="no"?>
<svg width="8px" height="12px" viewBox="0 0 8 12" version="1.1" xmlns="http://www.w3.org/2000/svg" xmlns:xlink="http://www.w3.org/1999/xlink">
    <!-- Generator: Sketch 3.8.3 (29802) - http://www.bohemiancoding.com/sketch -->
    <title>Shape</title>
    <desc>Created with Sketch.</desc>
    <defs></defs>
    <g id="Final" stroke="none" stroke-width="1" fill="none" fill-rule="evenodd" opacity="0.300000012">
        <g id="Main" transform="translate(-361.000000, -95.000000)" fill="#FFFFFF">
            <g id="Sidebar">
                <g id="Cells" transform="translate(11.000000, 75.000000)">
                    <g id="Cell">
                        <g id="ic_chevron_right_black_24px" transform="translate(350.000000, 20.000000)">
                            <g id="Group">
                                <polygon id="Shape" points="2 0 0.59 1.41 5.17 6 0.59 10.59 2 12 8 6"></polygon>
                            </g>
                        </g>
                    </g>
                </g>
            </g>
        </g>
    </g>
</svg>